P01_Diseño_ALU/alu.vcd
$date
	Wed Nov 10 21:10:04 2021
$end
$version
	Icarus Verilog
$end
$timescale
	10ps
$end
$scope module alu_tb $end
$var wire 1 ! t_z $end
$var wire 1 " t_s $end
$var wire 1 # t_c $end
$var wire 4 $ t_R [3:0] $end
$var reg 4 % t_A [3:0] $end
$var reg 4 & t_B [3:0] $end
$var reg 2 ' t_Op [1:0] $end
$var reg 1 ( t_arit $end
$var integer 32 ) errores [31:0] $end
$scope module mat $end
$var wire 4 * A [3:0] $end
$var wire 2 + ALUOp [1:0] $end
$var wire 4 , B [3:0] $end
$var wire 1 - Cin0 $end
$var wire 1 ( arit $end
$var wire 1 . cpl $end
$var wire 1 / op1_A $end
$var wire 1 0 op2_B $end
$var wire 1 ! zero $end
$var wire 1 " sign $end
$var wire 4 1 out_B [3:0] $end
$var wire 1 # carry $end
$var wire 4 2 R [3:0] $end
$var wire 4 3 OP2 [3:0] $end
$var wire 4 4 OP1 [3:0] $end
$var wire 1 5 Cout2 $end
$var wire 1 6 Cout1 $end
$var wire 1 7 Cout0 $end
$var reg 4 8 kZero [3:0] $end
$scope module cal0 $end
$var wire 1 9 a $end
$var wire 1 ( arit $end
$var wire 1 : b $end
$var wire 1 - c_in $end
$var wire 2 ; s [1:0] $end
$var wire 1 < out $end
$var wire 1 = fa_out $end
$var wire 1 > cl_out $end
$var wire 1 7 c_out $end
$scope module cl1 $end
$var wire 1 9 a $end
$var wire 1 ? and_out $end
$var wire 1 : b $end
$var wire 1 @ not_out $end
$var wire 1 A or_out $end
$var wire 2 B s [1:0] $end
$var wire 1 C xor_out $end
$var wire 1 > out $end
$scope module mux_4_1 $end
$var wire 1 ? a $end
$var wire 1 A b $end
$var wire 1 C c $end
$var wire 1 @ d $end
$var wire 2 D s [1:0] $end
$var reg 1 > out $end
$upscope $end
$upscope $end
$scope module fa1 $end
$var wire 1 9 a $end
$var wire 1 : b $end
$var wire 1 - cin $end
$var wire 1 E sum1 $end
$var wire 1 = sum $end
$var wire 1 7 cout $end
$var wire 1 F carry2 $end
$var wire 1 G carry1 $end
$upscope $end
$scope module mux2_1_1 $end
$var wire 1 > a $end
$var wire 1 = b $end
$var wire 1 ( s $end
$var wire 1 < out $end
$upscope $end
$upscope $end
$scope module cal1 $end
$var wire 1 H a $end
$var wire 1 ( arit $end
$var wire 1 I b $end
$var wire 1 7 c_in $end
$var wire 2 J s [1:0] $end
$var wire 1 K out $end
$var wire 1 L fa_out $end
$var wire 1 M cl_out $end
$var wire 1 6 c_out $end
$scope module cl1 $end
$var wire 1 H a $end
$var wire 1 N and_out $end
$var wire 1 I b $end
$var wire 1 O not_out $end
$var wire 1 P or_out $end
$var wire 2 Q s [1:0] $end
$var wire 1 R xor_out $end
$var wire 1 M out $end
$scope module mux_4_1 $end
$var wire 1 N a $end
$var wire 1 P b $end
$var wire 1 R c $end
$var wire 1 O d $end
$var wire 2 S s [1:0] $end
$var reg 1 M out $end
$upscope $end
$upscope $end
$scope module fa1 $end
$var wire 1 H a $end
$var wire 1 I b $end
$var wire 1 7 cin $end
$var wire 1 T sum1 $end
$var wire 1 L sum $end
$var wire 1 6 cout $end
$var wire 1 U carry2 $end
$var wire 1 V carry1 $end
$upscope $end
$scope module mux2_1_1 $end
$var wire 1 M a $end
$var wire 1 L b $end
$var wire 1 ( s $end
$var wire 1 K out $end
$upscope $end
$upscope $end
$scope module cal2 $end
$var wire 1 W a $end
$var wire 1 ( arit $end
$var wire 1 X b $end
$var wire 1 6 c_in $end
$var wire 2 Y s [1:0] $end
$var wire 1 Z out $end
$var wire 1 [ fa_out $end
$var wire 1 \ cl_out $end
$var wire 1 5 c_out $end
$scope module cl1 $end
$var wire 1 W a $end
$var wire 1 ] and_out $end
$var wire 1 X b $end
$var wire 1 ^ not_out $end
$var wire 1 _ or_out $end
$var wire 2 ` s [1:0] $end
$var wire 1 a xor_out $end
$var wire 1 \ out $end
$scope module mux_4_1 $end
$var wire 1 ] a $end
$var wire 1 _ b $end
$var wire 1 a c $end
$var wire 1 ^ d $end
$var wire 2 b s [1:0] $end
$var reg 1 \ out $end
$upscope $end
$upscope $end
$scope module fa1 $end
$var wire 1 W a $end
$var wire 1 X b $end
$var wire 1 6 cin $end
$var wire 1 c sum1 $end
$var wire 1 [ sum $end
$var wire 1 5 cout $end
$var wire 1 d carry2 $end
$var wire 1 e carry1 $end
$upscope $end
$scope module mux2_1_1 $end
$var wire 1 \ a $end
$var wire 1 [ b $end
$var wire 1 ( s $end
$var wire 1 Z out $end
$upscope $end
$upscope $end
$scope module cal3 $end
$var wire 1 f a $end
$var wire 1 ( arit $end
$var wire 1 g b $end
$var wire 1 5 c_in $end
$var wire 2 h s [1:0] $end
$var wire 1 i out $end
$var wire 1 j fa_out $end
$var wire 1 k cl_out $end
$var wire 1 # c_out $end
$scope module cl1 $end
$var wire 1 f a $end
$var wire 1 l and_out $end
$var wire 1 g b $end
$var wire 1 m not_out $end
$var wire 1 n or_out $end
$var wire 2 o s [1:0] $end
$var wire 1 p xor_out $end
$var wire 1 k out $end
$scope module mux_4_1 $end
$var wire 1 l a $end
$var wire 1 n b $end
$var wire 1 p c $end
$var wire 1 m d $end
$var wire 2 q s [1:0] $end
$var reg 1 k out $end
$upscope $end
$upscope $end
$scope module fa1 $end
$var wire 1 f a $end
$var wire 1 g b $end
$var wire 1 5 cin $end
$var wire 1 r sum1 $end
$var wire 1 j sum $end
$var wire 1 # cout $end
$var wire 1 s carry2 $end
$var wire 1 t carry1 $end
$upscope $end
$scope module mux2_1_1 $end
$var wire 1 k a $end
$var wire 1 j b $end
$var wire 1 ( s $end
$var wire 1 i out $end
$upscope $end
$upscope $end
$scope module compl1_B $end
$var wire 1 . cpl $end
$var wire 4 u Sal [3:0] $end
$var wire 4 v Ent [3:0] $end
$upscope $end
$scope module mux2_4_A $end
$var wire 4 w a [3:0] $end
$var wire 4 x b [3:0] $end
$var wire 1 / s $end
$var wire 4 y out [3:0] $end
$upscope $end
$scope module mux2_4_B $end
$var wire 4 z a [3:0] $end
$var wire 4 { b [3:0] $end
$var wire 1 0 s $end
$var wire 4 | out [3:0] $end
$upscope $end
$upscope $end
$scope task check $end
$var reg 1 } flag_carry $end
$var reg 1 ~ flag_sign $end
$var reg 1 !" flag_zero $end
$var reg 5 "" result [4:0] $end
$upscope $end
$upscope $end
$enddefinitions $end
#0
$dumpvars
bx ""
x!"
x~
x}
b0 |
b0 {
b0 z
b0 y
b0 x
b0 w
b0 v
b0 u
0t
0s
0r
b0 q
0p
b0 o
0n
1m
0l
0k
0j
0i
b0 h
0g
0f
0e
0d
0c
b0 b
0a
b0 `
0_
1^
0]
0\
0[
0Z
b0 Y
0X
0W
0V
0U
0T
b0 S
0R
b0 Q
0P
1O
0N
0M
0L
0K
b0 J
0I
0H
0G
0F
0E
b0 D
0C
b0 B
0A
1@
0?
0>
0=
0<
b0 ;
0:
09
b0 8
07
06
05
b0 4
b0 3
b0 2
b0 1
10
1/
0.
0-
b0 ,
b0 +
b0 *
b0 )
0(
b0 '
b0 &
b0 %
b0 $
0#
x"
1!
$end
#200
1=
1A
1C
1E
1:
b1 3
b1 u
b1 1
b1 v
b1 |
b1 &
b1 ,
b1 {
1!"
bx0000 ""
#400
1L
0=
1P
1R
1T
0A
0C
0E
1I
0:
b10 3
b10 u
b10 1
b10 v
b10 |
b10 &
b10 ,
b10 {
#600
1=
1A
1C
1E
1:
b11 3
b11 u
b11 1
b11 v
b11 |
b11 &
b11 ,
b11 {
#800
1[
0L
0=
1_
1a
1c
0P
0R
0T
0A
0C
0E
1X
0I
0:
b100 3
b100 u
b100 1
b100 v
b100 |
b100 &
b100 ,
b100 {
#1000
1=
1A
1C
1E
1:
b101 3
b101 u
b101 1
b101 v
b101 |
b101 &
b101 ,
b101 {
#1200
1L
0=
1P
1R
1T
0A
0C
0E
1I
0:
b110 3
b110 u
b110 1
b110 v
b110 |
b110 &
b110 ,
b110 {
#1400
1=
1A
1C
1E
1:
b111 3
b111 u
b111 1
b111 v
b111 |
b111 &
b111 ,
b111 {
#1600
1j
0[
0L
0=
1n
1p
1r
0_
0a
0c
0P
0R
0T
0A
0C
0E
1g
0X
0I
0:
b1000 3
b1000 u
b1000 1
b1000 v
b1000 |
b1000 &
b1000 ,
b1000 {
#1800
1=
1A
1C
1E
1:
b1001 3
b1001 u
b1001 1
b1001 v
b1001 |
b1001 &
b1001 ,
b1001 {
#2000
1L
0=
1P
1R
1T
0A
0C
0E
1I
0:
b1010 3
b1010 u
b1010 1
b1010 v
b1010 |
b1010 &
b1010 ,
b1010 {
#2200
1=
1A
1C
1E
1:
b1011 3
b1011 u
b1011 1
b1011 v
b1011 |
b1011 &
b1011 ,
b1011 {
#2400
1[
0L
0=
1_
1a
1c
0P
0R
0T
0A
0C
0E
1X
0I
0:
b1100 3
b1100 u
b1100 1
b1100 v
b1100 |
b1100 &
b1100 ,
b1100 {
#2600
1=
1A
1C
1E
1:
b1101 3
b1101 u
b1101 1
b1101 v
b1101 |
b1101 &
b1101 ,
b1101 {
#2800
1L
0=
1P
1R
1T
0A
0C
0E
1I
0:
b1110 3
b1110 u
b1110 1
b1110 v
b1110 |
b1110 &
b1110 ,
b1110 {
#3000
1=
1A
1C
1E
1:
b1111 3
b1111 u
b1111 1
b1111 v
b1111 |
b1111 &
b1111 ,
b1111 {
#3200
0j
0[
0L
0n
0p
0r
0_
0a
0c
0P
0R
0T
0@
0g
0X
0I
0:
19
b0 3
b0 u
b1 4
b1 y
b0 1
b0 v
b0 |
b1 %
b1 *
b1 x
b1 z
b0 &
b0 ,
b0 {
#3400
0!
1L
b1 $
b1 2
1<
17
1>
0=
1?
0C
0E
1G
1:
b1 3
b1 u
b1 1
b1 v
b1 |
b1 &
b1 ,
b1 {
#3600
1!
0[
06
b0 $
b0 2
0<
07
1L
0U
0>
1=
1P
1R
1T
0?
1C
1E
0G
1I
0:
b10 3
b10 u
b10 1
b10 v
b10 |
b10 &
b10 ,
b10 {
0!"
bx0001 ""
#3800
0!
1[
16
0L
1U
b1 $
b1 2
1<
17
1>
0=
1?
0C
0E
1G
1:
b11 3
b11 u
b11 1
b11 v
b11 |
b11 &
b11 ,
b11 {
1!"
bx0000 ""
#4000
1!
0j
05
06
b0 $
b0 2
0<
07
1[
0d
0L
0U
0>
1=
1_
1a
1c
0P
0R
0T
0?
1C
1E
0G
1X
0I
0:
b100 3
b100 u
b100 1
b100 v
b100 |
b100 &
b100 ,
b100 {
0!"
bx0001 ""
#4200
0!
1L
b1 $
b1 2
1<
17
1>
0=
1?
0C
0E
1G
1:
b101 3
b101 u
b101 1
b101 v
b101 |
b101 &
b101 ,
b101 {
1!"
bx0000 ""
#4400
0j
1!
05
1[
0d
06
b0 $
b0 2
0<
07
1L
0U
0>
1=
1P
1R
1T
0?
1C
1E
0G
1I
0:
b110 3
b110 u
b110 1
b110 v
b110 |
b110 &
b110 ,
b110 {
0!"
bx0001 ""
#4600
1j
15
0!
0[
1d
16
0L
1U
b1 $
b1 2
1<
17
1>
0=
1?
0C
0E
1G
1:
b111 3
b111 u
b111 1
b111 v
b111 |
b111 &
b111 ,
b111 {
1!"
bx0000 ""
#4800
1!
0#
05
06
b0 $
b0 2
0<
07
1j
0s
0[
0d
0L
0U
0>
1=
1n
1p
1r
0_
0a
0c
0P
0R
0T
0?
1C
1E
0G
1g
0X
0I
0:
b1000 3
b1000 u
b1000 1
b1000 v
b1000 |
b1000 &
b1000 ,
b1000 {
0!"
bx0001 ""
#5000
0!
1L
b1 $
b1 2
1<
17
1>
0=
1?
0C
0E
1G
1:
b1001 3
b1001 u
b1001 1
b1001 v
b1001 |
b1001 &
b1001 ,
b1001 {
1!"
bx0000 ""
#5200
1!
0[
06
b0 $
b0 2
0<
07
1L
0U
0>
1=
1P
1R
1T
0?
1C
1E
0G
1I
0:
b1010 3
b1010 u
b1010 1
b1010 v
b1010 |
b1010 &
b1010 ,
b1010 {
0!"
bx0001 ""
#5400
0!
1[
16
0L
1U
b1 $
b1 2
1<
17
1>
0=
1?
0C
0E
1G
1:
b1011 3
b1011 u
b1011 1
b1011 v
b1011 |
b1011 &
b1011 ,
b1011 {
1!"
bx0000 ""
#5600
1!
0#
1j
0s
05
06
b0 $
b0 2
0<
07
1[
0d
0L
0U
0>
1=
1_
1a
1c
0P
0R
0T
0?
1C
1E
0G
1X
0I
0:
b1100 3
b1100 u
b1100 1
b1100 v
b1100 |
b1100 &
b1100 ,
b1100 {
0!"
bx0001 ""
#5800
0!
1L
b1 $
b1 2
1<
17
1>
0=
1?
0C
0E
1G
1:
b1101 3
b1101 u
b1101 1
b1101 v
b1101 |
b1101 &
b1101 ,
b1101 {
1!"
bx0000 ""
#6000
0#
1j
0s
1!
05
1[
0d
06
b0 $
b0 2
0<
07
1L
0U
0>
1=
1P
1R
1T
0?
1C
1E
0G
1I
0:
b1110 3
b1110 u
b1110 1
b1110 v
b1110 |
b1110 &
b1110 ,
b1110 {
0!"
bx0001 ""
#6200
1#
0j
1s
15
0!
0[
1d
16
0L
1U
b1 $
b1 2
1<
17
1>
0=
1?
0C
0E
1G
1:
b1111 3
b1111 u
b1111 1
b1111 v
b1111 |
b1111 &
b1111 ,
b1111 {
1!"
bx0000 ""
#6400
1!
06
0#
05
1L
0U
b0 $
b0 2
0<
07
0j
0s
0[
0d
0>
0n
0p
0r
0_
0a
0c
0O
0?
0A
1@
0G
0g
0X
0I
0:
1H
09
b0 3
b0 u
b10 4
b10 y
b0 1
b0 v
b0 |
b10 %
b10 *
b10 x
b10 z
b0 &
b0 ,
b0 {
0!"
bx0001 ""
#6600
1=
1A
1C
1E
1:
b1 3
b1 u
b1 1
b1 v
b1 |
b1 &
b1 ,
b1 {
1!"
bx0000 ""
#6800
0!
1[
b10 $
b10 2
1K
16
1M
0L
0=
1N
0R
0T
1V
0A
0C
0E
1I
0:
b10 3
b10 u
b10 1
b10 v
b10 |
b10 &
b10 ,
b10 {
#7000
1=
1A
1C
1E
1:
b11 3
b11 u
b11 1
b11 v
b11 |
b11 &
b11 ,
b11 {
0!"
bx0010 ""
#7200
1!
0j
05
b0 $
b0 2
0K
06
1[
0d
0M
1L
0=
1_
1a
1c
0N
1R
1T
0V
0A
0C
0E
1X
0I
0:
b100 3
b100 u
b100 1
b100 v
b100 |
b100 &
b100 ,
b100 {
#7400
1=
1A
1C
1E
1:
b101 3
b101 u
b101 1
b101 v
b101 |
b101 &
b101 ,
b101 {
1!"
bx0000 ""
#7600
0!
1j
15
0[
1d
b10 $
b10 2
1K
16
1M
0L
0=
1N
0R
0T
1V
0A
0C
0E
1I
0:
b110 3
b110 u
b110 1
b110 v
b110 |
b110 &
b110 ,
b110 {
#7800
1=
1A
1C
1E
1:
b111 3
b111 u
b111 1
b111 v
b111 |
b111 &
b111 ,
b111 {
0!"
bx0010 ""
#8000
1!
0#
05
b0 $
b0 2
0K
06
1j
0s
0[
0d
0M
1L
0=
1n
1p
1r
0_
0a
0c
0N
1R
1T
0V
0A
0C
0E
1g
0X
0I
0:
b1000 3
b1000 u
b1000 1
b1000 v
b1000 |
b1000 &
b1000 ,
b1000 {
#8200
1=
1A
1C
1E
1:
b1001 3
b1001 u
b1001 1
b1001 v
b1001 |
b1001 &
b1001 ,
b1001 {
1!"
bx0000 ""
#8400
0!
1[
b10 $
b10 2
1K
16
1M
0L
0=
1N
0R
0T
1V
0A
0C
0E
1I
0:
b1010 3
b1010 u
b1010 1
b1010 v
b1010 |
b1010 &
b1010 ,
b1010 {
#8600
1=
1A
1C
1E
1:
b1011 3
b1011 u
b1011 1
b1011 v
b1011 |
b1011 &
b1011 ,
b1011 {
0!"
bx0010 ""
#8800
1!
0#
1j
0s
05
b0 $
b0 2
0K
06
1[
0d
0M
1L
0=
1_
1a
1c
0N
1R
1T
0V
0A
0C
0E
1X
0I
0:
b1100 3
b1100 u
b1100 1
b1100 v
b1100 |
b1100 &
b1100 ,
b1100 {
#9000
1=
1A
1C
1E
1:
b1101 3
b1101 u
b1101 1
b1101 v
b1101 |
b1101 &
b1101 ,
b1101 {
1!"
bx0000 ""
#9200
1#
0!
0j
1s
15
0[
1d
b10 $
b10 2
1K
16
1M
0L
0=
1N
0R
0T
1V
0A
0C
0E
1I
0:
b1110 3
b1110 u
b1110 1
b1110 v
b1110 |
b1110 &
b1110 ,
b1110 {
#9400
1=
1A
1C
1E
1:
b1111 3
b1111 u
b1111 1
b1111 v
b1111 |
b1111 &
b1111 ,
b1111 {
0!"
bx0010 ""
#9600
1!
0#
05
b0 $
b0 2
0K
06
0j
0s
0[
0d
0M
1L
0n
0p
0r
0_
0a
0c
0N
1R
1T
0V
0@
0g
0X
0I
0:
19
b0 3
b0 u
b11 4
b11 y
b0 1
b0 v
b0 |
b11 %
b11 *
b11 x
b11 z
b0 &
b0 ,
b0 {
#9800
0!
1[
16
0L
1U
b1 $
b1 2
1<
17
1>
0=
1?
0C
0E
1G
1:
b1 3
b1 u
b1 1
b1 v
b1 |
b1 &
b1 ,
b1 {
1!"
bx0000 ""
#10000
1K
b10 $
b10 2
0<
07
1M
0L
0U
0>
1=
1N
0R
0T
1V
0?
1C
1E
0G
1I
0:
b10 3
b10 u
b10 1
b10 v
b10 |
b10 &
b10 ,
b10 {
0!"
bx0001 ""
#10200
1L
b11 $
b11 2
1<
17
1>
0=
1?
0C
0E
1G
1:
b11 3
b11 u
b11 1
b11 v
b11 |
b11 &
b11 ,
b11 {
bx0010 ""
#10400
1!
0j
05
0K
06
b0 $
b0 2
0<
07
1[
0d
0M
1L
0U
0>
1=
1_
1a
1c
0N
1R
1T
0V
0?
1C
1E
0G
1X
0I
0:
b100 3
b100 u
b100 1
b100 v
b100 |
b100 &
b100 ,
b100 {
bx0011 ""
#10600
1j
15
0!
0[
1d
16
0L
1U
b1 $
b1 2
1<
17
1>
0=
1?
0C
0E
1G
1:
b101 3
b101 u
b101 1
b101 v
b101 |
b101 &
b101 ,
b101 {
1!"
bx0000 ""
#10800
1K
b10 $
b10 2
0<
07
1M
0L
0U
0>
1=
1N
0R
0T
1V
0?
1C
1E
0G
1I
0:
b110 3
b110 u
b110 1
b110 v
b110 |
b110 &
b110 ,
b110 {
0!"
bx0001 ""
#11000
1L
b11 $
b11 2
1<
17
1>
0=
1?
0C
0E
1G
1:
b111 3
b111 u
b111 1
b111 v
b111 |
b111 &
b111 ,
b111 {
bx0010 ""
#11200
1!
0#
05
0K
06
b0 $
b0 2
0<
07
1j
0s
0[
0d
0M
1L
0U
0>
1=
1n
1p
1r
0_
0a
0c
0N
1R
1T
0V
0?
1C
1E
0G
1g
0X
0I
0:
b1000 3
b1000 u
b1000 1
b1000 v
b1000 |
b1000 &
b1000 ,
b1000 {
bx0011 ""
#11400
0!
1[
16
0L
1U
b1 $
b1 2
1<
17
1>
0=
1?
0C
0E
1G
1:
b1001 3
b1001 u
b1001 1
b1001 v
b1001 |
b1001 &
b1001 ,
b1001 {
1!"
bx0000 ""
#11600
1K
b10 $
b10 2
0<
07
1M
0L
0U
0>
1=
1N
0R
0T
1V
0?
1C
1E
0G
1I
0:
b1010 3
b1010 u
b1010 1
b1010 v
b1010 |
b1010 &
b1010 ,
b1010 {
0!"
bx0001 ""
#11800
1L
b11 $
b11 2
1<
17
1>
0=
1?
0C
0E
1G
1:
b1011 3
b1011 u
b1011 1
b1011 v
b1011 |
b1011 &
b1011 ,
b1011 {
bx0010 ""
#12000
1!
0#
1j
0s
05
0K
06
b0 $
b0 2
0<
07
1[
0d
0M
1L
0U
0>
1=
1_
1a
1c
0N
1R
1T
0V
0?
1C
1E
0G
1X
0I
0:
b1100 3
b1100 u
b1100 1
b1100 v
b1100 |
b1100 &
b1100 ,
b1100 {
bx0011 ""
#12200
1#
0j
1s
15
0!
0[
1d
16
0L
1U
b1 $
b1 2
1<
17
1>
0=
1?
0C
0E
1G
1:
b1101 3
b1101 u
b1101 1
b1101 v
b1101 |
b1101 &
b1101 ,
b1101 {
1!"
bx0000 ""
#12400
1K
b10 $
b10 2
0<
07
1M
0L
0U
0>
1=
1N
0R
0T
1V
0?
1C
1E
0G
1I
0:
b1110 3
b1110 u
b1110 1
b1110 v
b1110 |
b1110 &
b1110 ,
b1110 {
0!"
bx0001 ""
#12600
1L
b11 $
b11 2
1<
17
1>
0=
1?
0C
0E
1G
1:
b1111 3
b1111 u
b1111 1
b1111 v
b1111 |
b1111 &
b1111 ,
b1111 {
bx0010 ""
#12800
1!
05
0#
1[
0d
0L
0K
06
b0 $
b0 2
0<
07
0j
0s
0M
0>
0n
0p
0r
0^
0N
0P
1O
0V
0?
0A
1@
0G
0g
0X
0I
0:
1W
0H
09
b0 3
b0 u
b100 4
b100 y
b0 1
b0 v
b0 |
b100 %
b100 *
b100 x
b100 z
b0 &
b0 ,
b0 {
bx0011 ""
#13000
1=
1A
1C
1E
1:
b1 3
b1 u
b1 1
b1 v
b1 |
b1 &
b1 ,
b1 {
1!"
bx0000 ""
#13200
1L
0=
1P
1R
1T
0A
0C
0E
1I
0:
b10 3
b10 u
b10 1
b10 v
b10 |
b10 &
b10 ,
b10 {
#13400
1=
1A
1C
1E
1:
b11 3
b11 u
b11 1
b11 v
b11 |
b11 &
b11 ,
b11 {
#13600
0!
1j
b100 $
b100 2
1Z
15
1\
0[
0L
0=
1]
0a
0c
1e
0P
0R
0T
0A
0C
0E
1X
0I
0:
b100 3
b100 u
b100 1
b100 v
b100 |
b100 &
b100 ,
b100 {
#13800
1=
1A
1C
1E
1:
b101 3
b101 u
b101 1
b101 v
b101 |
b101 &
b101 ,
b101 {
0!"
bx0100 ""
#14000
1L
0=
1P
1R
1T
0A
0C
0E
1I
0:
b110 3
b110 u
b110 1
b110 v
b110 |
b110 &
b110 ,
b110 {
#14200
1=
1A
1C
1E
1:
b111 3
b111 u
b111 1
b111 v
b111 |
b111 &
b111 ,
b111 {
#14400
1!
0#
b0 $
b0 2
0Z
05
1j
0s
0\
1[
0L
0=
1n
1p
1r
0]
1a
1c
0e
0P
0R
0T
0A
0C
0E
1g
0X
0I
0:
b1000 3
b1000 u
b1000 1
b1000 v
b1000 |
b1000 &
b1000 ,
b1000 {
#14600
1=
1A
1C
1E
1:
b1001 3
b1001 u
b1001 1
b1001 v
b1001 |
b1001 &
b1001 ,
b1001 {
1!"
bx0000 ""
#14800
1L
0=
1P
1R
1T
0A
0C
0E
1I
0:
b1010 3
b1010 u
b1010 1
b1010 v
b1010 |
b1010 &
b1010 ,
b1010 {
#15000
1=
1A
1C
1E
1:
b1011 3
b1011 u
b1011 1
b1011 v
b1011 |
b1011 &
b1011 ,
b1011 {
#15200
0!
1#
0j
1s
b100 $
b100 2
1Z
15
1\
0[
0L
0=
1]
0a
0c
1e
0P
0R
0T
0A
0C
0E
1X
0I
0:
b1100 3
b1100 u
b1100 1
b1100 v
b1100 |
b1100 &
b1100 ,
b1100 {
#15400
1=
1A
1C
1E
1:
b1101 3
b1101 u
b1101 1
b1101 v
b1101 |
b1101 &
b1101 ,
b1101 {
0!"
bx0100 ""
#15600
1L
0=
1P
1R
1T
0A
0C
0E
1I
0:
b1110 3
b1110 u
b1110 1
b1110 v
b1110 |
b1110 &
b1110 ,
b1110 {
#15800
1=
1A
1C
1E
1:
b1111 3
b1111 u
b1111 1
b1111 v
b1111 |
b1111 &
b1111 ,
b1111 {
#16000
1!
0#
b0 $
b0 2
0Z
05
0j
0s
0\
1[
0L
0n
0p
0r
0]
1a
1c
0e
0P
0R
0T
0@
0g
0X
0I
0:
19
b0 3
b0 u
b101 4
b101 y
b0 1
b0 v
b0 |
b101 %
b101 *
b101 x
b101 z
b0 &
b0 ,
b0 {
#16200
0!
1L
b1 $
b1 2
1<
17
1>
0=
1?
0C
0E
1G
1:
b1 3
b1 u
b1 1
b1 v
b1 |
b1 &
b1 ,
b1 {
1!"
bx0000 ""
#16400
0j
1!
05
1[
0d
06
b0 $
b0 2
0<
07
1L
0U
0>
1=
1P
1R
1T
0?
1C
1E
0G
1I
0:
b10 3
b10 u
b10 1
b10 v
b10 |
b10 &
b10 ,
b10 {
0!"
bx0001 ""
#16600
1j
15
0!
0[
1d
16
0L
1U
b1 $
b1 2
1<
17
1>
0=
1?
0C
0E
1G
1:
b11 3
b11 u
b11 1
b11 v
b11 |
b11 &
b11 ,
b11 {
1!"
bx0000 ""
#16800
06
1Z
b100 $
b100 2
0<
07
1\
0[
0d
0L
0U
0>
1=
1]
0a
0c
1e
0P
0R
0T
0?
1C
1E
0G
1X
0I
0:
b100 3
b100 u
b100 1
b100 v
b100 |
b100 &
b100 ,
b100 {
0!"
bx0001 ""
#17000
1L
b101 $
b101 2
1<
17
1>
0=
1?
0C
0E
1G
1:
b101 3
b101 u
b101 1
b101 v
b101 |
b101 &
b101 ,
b101 {
bx0100 ""
#17200
0[
06
b100 $
b100 2
0<
07
1L
0U
0>
1=
1P
1R
1T
0?
1C
1E
0G
1I
0:
b110 3
b110 u
b110 1
b110 v
b110 |
b110 &
b110 ,
b110 {
bx0101 ""
#17400
1[
16
0L
1U
b101 $
b101 2
1<
17
1>
0=
1?
0C
0E
1G
1:
b111 3
b111 u
b111 1
b111 v
b111 |
b111 &
b111 ,
b111 {
bx0100 ""
#17600
1!
0#
06
0Z
05
b0 $
b0 2
0<
07
1j
0s
0\
1[
0d
0L
0U
0>
1=
1n
1p
1r
0]
1a
1c
0e
0P
0R
0T
0?
1C
1E
0G
1g
0X
0I
0:
b1000 3
b1000 u
b1000 1
b1000 v
b1000 |
b1000 &
b1000 ,
b1000 {
bx0101 ""
#17800
0!
1L
b1 $
b1 2
1<
17
1>
0=
1?
0C
0E
1G
1:
b1001 3
b1001 u
b1001 1
b1001 v
b1001 |
b1001 &
b1001 ,
b1001 {
1!"
bx0000 ""
#18000
0#
1j
0s
1!
05
1[
0d
06
b0 $
b0 2
0<
07
1L
0U
0>
1=
1P
1R
1T
0?
1C
1E
0G
1I
0:
b1010 3
b1010 u
b1010 1
b1010 v
b1010 |
b1010 &
b1010 ,
b1010 {
0!"
bx0001 ""
#18200
1#
0j
1s
15
0!
0[
1d
16
0L
1U
b1 $
b1 2
1<
17
1>
0=
1?
0C
0E
1G
1:
b1011 3
b1011 u
b1011 1
b1011 v
b1011 |
b1011 &
b1011 ,
b1011 {
1!"
bx0000 ""
#18400
06
1Z
b100 $
b100 2
0<
07
1\
0[
0d
0L
0U
0>
1=
1]
0a
0c
1e
0P
0R
0T
0?
1C
1E
0G
1X
0I
0:
b1100 3
b1100 u
b1100 1
b1100 v
b1100 |
b1100 &
b1100 ,
b1100 {
0!"
bx0001 ""
#18600
1L
b101 $
b101 2
1<
17
1>
0=
1?
0C
0E
1G
1:
b1101 3
b1101 u
b1101 1
b1101 v
b1101 |
b1101 &
b1101 ,
b1101 {
bx0100 ""
#18800
0[
06
b100 $
b100 2
0<
07
1L
0U
0>
1=
1P
1R
1T
0?
1C
1E
0G
1I
0:
b1110 3
b1110 u
b1110 1
b1110 v
b1110 |
b1110 &
b1110 ,
b1110 {
bx0101 ""
#19000
1[
16
0L
1U
b101 $
b101 2
1<
17
1>
0=
1?
0C
0E
1G
1:
b1111 3
b1111 u
b1111 1
b1111 v
b1111 |
b1111 &
b1111 ,
b1111 {
bx0100 ""
#19200
1!
06
0#
1L
0U
0Z
05
b0 $
b0 2
0<
07
0j
0s
0\
1[
0d
0>
0n
0p
0r
0]
1a
1c
0e
0O
0?
0A
1@
0G
0g
0X
0I
0:
1H
09
b0 3
b0 u
b110 4
b110 y
b0 1
b0 v
b0 |
b110 %
b110 *
b110 x
b110 z
b0 &
b0 ,
b0 {
bx0101 ""
#19400
1=
1A
1C
1E
1:
b1 3
b1 u
b1 1
b1 v
b1 |
b1 &
b1 ,
b1 {
1!"
bx0000 ""
#19600
0!
1j
15
0[
1d
b10 $
b10 2
1K
16
1M
0L
0=
1N
0R
0T
1V
0A
0C
0E
1I
0:
b10 3
b10 u
b10 1
b10 v
b10 |
b10 &
b10 ,
b10 {
#19800
1=
1A
1C
1E
1:
b11 3
b11 u
b11 1
b11 v
b11 |
b11 &
b11 ,
b11 {
0!"
bx0010 ""
#20000
1Z
b100 $
b100 2
0K
06
1\
0[
0d
0M
1L
0=
1]
0a
0c
1e
0N
1R
1T
0V
0A
0C
0E
1X
0I
0:
b100 3
b100 u
b100 1
b100 v
b100 |
b100 &
b100 ,
b100 {
#20200
1=
1A
1C
1E
1:
b101 3
b101 u
b101 1
b101 v
b101 |
b101 &
b101 ,
b101 {
bx0100 ""
#20400
1[
b110 $
b110 2
1K
16
1M
0L
0=
1N
0R
0T
1V
0A
0C
0E
1I
0:
b110 3
b110 u
b110 1
b110 v
b110 |
b110 &
b110 ,
b110 {
#20600
1=
1A
1C
1E
1:
b111 3
b111 u
b111 1
b111 v
b111 |
b111 &
b111 ,
b111 {
bx0110 ""
#20800
1!
0#
0Z
05
b0 $
b0 2
0K
06
1j
0s
0\
1[
0d
0M
1L
0=
1n
1p
1r
0]
1a
1c
0e
0N
1R
1T
0V
0A
0C
0E
1g
0X
0I
0:
b1000 3
b1000 u
b1000 1
b1000 v
b1000 |
b1000 &
b1000 ,
b1000 {
#21000
1=
1A
1C
1E
1:
b1001 3
b1001 u
b1001 1
b1001 v
b1001 |
b1001 &
b1001 ,
b1001 {
1!"
bx0000 ""
#21200
1#
0!
0j
1s
15
0[
1d
b10 $
b10 2
1K
16
1M
0L
0=
1N
0R
0T
1V
0A
0C
0E
1I
0:
b1010 3
b1010 u
b1010 1
b1010 v
b1010 |
b1010 &
b1010 ,
b1010 {
#21400
1=
1A
1C
1E
1:
b1011 3
b1011 u
b1011 1
b1011 v
b1011 |
b1011 &
b1011 ,
b1011 {
0!"
bx0010 ""
