P01_Diseño_ALU/alu.vcd
$date
	Fri Nov  5 15:57:06 2021
$end
$version
	Icarus Verilog
$end
$timescale
	10ps
$end
$scope module alu_tb $end
$var wire 1 ! t_z $end
$var wire 1 " t_s $end
$var wire 1 # t_c $end
$var wire 4 $ t_R [3:0] $end
$var reg 4 % t_A [3:0] $end
$var reg 4 & t_B [3:0] $end
$var reg 2 ' t_Op [1:0] $end
$var reg 1 ( t_arit $end
$var integer 32 ) errores [31:0] $end
$scope module mat $end
$var wire 4 * A [3:0] $end
$var wire 2 + ALUOp [1:0] $end
$var wire 4 , B [3:0] $end
$var wire 1 - Cin0 $end
$var wire 1 ( arit $end
$var wire 1 . cpl $end
$var wire 1 / not_ALUOp0 $end
$var wire 1 0 not_ALUOp1 $end
$var wire 1 1 not_R0 $end
$var wire 1 2 not_R1 $end
$var wire 1 3 not_R2 $end
$var wire 1 4 not_R3 $end
$var wire 1 5 not_arit $end
$var wire 1 6 op1_A $end
$var wire 1 7 op2_B $end
$var wire 1 8 out_or1 $end
$var wire 1 ! zero $end
$var wire 1 " sign $end
$var wire 4 9 out_B [3:0] $end
$var wire 1 # carry $end
$var wire 4 : R [3:0] $end
$var wire 4 ; OP2 [3:0] $end
$var wire 4 < OP1 [3:0] $end
$var wire 1 = Cout3 $end
$var wire 1 > Cout2 $end
$var wire 1 ? Cout1 $end
$var wire 1 @ Cout0 $end
$var reg 4 A kZero [3:0] $end
$scope module cal0 $end
$var wire 1 B a $end
$var wire 1 ( arit $end
$var wire 1 C b $end
$var wire 1 - c_in $end
$var wire 2 D s [1:0] $end
$var wire 1 E out $end
$var wire 1 F fa_out $end
$var wire 1 G cl_out $end
$var wire 1 @ c_out $end
$scope module cl1 $end
$var wire 1 B a $end
$var wire 1 H and_out $end
$var wire 1 C b $end
$var wire 1 I not_out $end
$var wire 1 J or_out $end
$var wire 2 K s [1:0] $end
$var wire 1 L xor_out $end
$var wire 1 G out $end
$scope module mux_4_1 $end
$var wire 1 H a $end
$var wire 1 J b $end
$var wire 1 L c $end
$var wire 1 I d $end
$var wire 2 M s [1:0] $end
$var reg 1 G out $end
$upscope $end
$upscope $end
$scope module fa1 $end
$var wire 1 B a $end
$var wire 1 C b $end
$var wire 1 - cin $end
$var wire 1 N sum1 $end
$var wire 1 F sum $end
$var wire 1 @ cout $end
$var wire 1 O carry2 $end
$var wire 1 P carry1 $end
$upscope $end
$scope module mux2_1_1 $end
$var wire 1 G a $end
$var wire 1 F b $end
$var wire 1 ( s $end
$var wire 1 E out $end
$upscope $end
$upscope $end
$scope module cal1 $end
$var wire 1 Q a $end
$var wire 1 ( arit $end
$var wire 1 R b $end
$var wire 1 @ c_in $end
$var wire 2 S s [1:0] $end
$var wire 1 T out $end
$var wire 1 U fa_out $end
$var wire 1 V cl_out $end
$var wire 1 ? c_out $end
$scope module cl1 $end
$var wire 1 Q a $end
$var wire 1 W and_out $end
$var wire 1 R b $end
$var wire 1 X not_out $end
$var wire 1 Y or_out $end
$var wire 2 Z s [1:0] $end
$var wire 1 [ xor_out $end
$var wire 1 V out $end
$scope module mux_4_1 $end
$var wire 1 W a $end
$var wire 1 Y b $end
$var wire 1 [ c $end
$var wire 1 X d $end
$var wire 2 \ s [1:0] $end
$var reg 1 V out $end
$upscope $end
$upscope $end
$scope module fa1 $end
$var wire 1 Q a $end
$var wire 1 R b $end
$var wire 1 @ cin $end
$var wire 1 ] sum1 $end
$var wire 1 U sum $end
$var wire 1 ? cout $end
$var wire 1 ^ carry2 $end
$var wire 1 _ carry1 $end
$upscope $end
$scope module mux2_1_1 $end
$var wire 1 V a $end
$var wire 1 U b $end
$var wire 1 ( s $end
$var wire 1 T out $end
$upscope $end
$upscope $end
$scope module cal2 $end
$var wire 1 ` a $end
$var wire 1 ( arit $end
$var wire 1 a b $end
$var wire 1 ? c_in $end
$var wire 2 b s [1:0] $end
$var wire 1 c out $end
$var wire 1 d fa_out $end
$var wire 1 e cl_out $end
$var wire 1 > c_out $end
$scope module cl1 $end
$var wire 1 ` a $end
$var wire 1 f and_out $end
$var wire 1 a b $end
$var wire 1 g not_out $end
$var wire 1 h or_out $end
$var wire 2 i s [1:0] $end
$var wire 1 j xor_out $end
$var wire 1 e out $end
$scope module mux_4_1 $end
$var wire 1 f a $end
$var wire 1 h b $end
$var wire 1 j c $end
$var wire 1 g d $end
$var wire 2 k s [1:0] $end
$var reg 1 e out $end
$upscope $end
$upscope $end
$scope module fa1 $end
$var wire 1 ` a $end
$var wire 1 a b $end
$var wire 1 ? cin $end
$var wire 1 l sum1 $end
$var wire 1 d sum $end
$var wire 1 > cout $end
$var wire 1 m carry2 $end
$var wire 1 n carry1 $end
$upscope $end
$scope module mux2_1_1 $end
$var wire 1 e a $end
$var wire 1 d b $end
$var wire 1 ( s $end
$var wire 1 c out $end
$upscope $end
$upscope $end
$scope module cal3 $end
$var wire 1 o a $end
$var wire 1 ( arit $end
$var wire 1 p b $end
$var wire 1 > c_in $end
$var wire 2 q s [1:0] $end
$var wire 1 r out $end
$var wire 1 s fa_out $end
$var wire 1 t cl_out $end
$var wire 1 = c_out $end
$scope module cl1 $end
$var wire 1 o a $end
$var wire 1 u and_out $end
$var wire 1 p b $end
$var wire 1 v not_out $end
$var wire 1 w or_out $end
$var wire 2 x s [1:0] $end
$var wire 1 y xor_out $end
$var wire 1 t out $end
$scope module mux_4_1 $end
$var wire 1 u a $end
$var wire 1 w b $end
$var wire 1 y c $end
$var wire 1 v d $end
$var wire 2 z s [1:0] $end
$var reg 1 t out $end
$upscope $end
$upscope $end
$scope module fa1 $end
$var wire 1 o a $end
$var wire 1 p b $end
$var wire 1 > cin $end
$var wire 1 { sum1 $end
$var wire 1 s sum $end
$var wire 1 = cout $end
$var wire 1 | carry2 $end
$var wire 1 } carry1 $end
$upscope $end
$scope module mux2_1_1 $end
$var wire 1 t a $end
$var wire 1 s b $end
$var wire 1 ( s $end
$var wire 1 r out $end
$upscope $end
$upscope $end
$scope module compl1_B $end
$var wire 1 . cpl $end
$var wire 4 ~ Sal [3:0] $end
$var wire 4 !" Ent [3:0] $end
$upscope $end
$scope module mux2_4_A $end
$var wire 4 "" a [3:0] $end
$var wire 4 #" b [3:0] $end
$var wire 1 6 s $end
$var wire 4 $" out [3:0] $end
$upscope $end
$scope module mux2_4_B $end
$var wire 4 %" a [3:0] $end
$var wire 4 &" b [3:0] $end
$var wire 1 7 s $end
$var wire 4 '" out [3:0] $end
$upscope $end
$upscope $end
$scope task check $end
$var reg 1 (" flag_carry $end
$var reg 1 )" flag_sign $end
$var reg 1 *" flag_zero $end
$var reg 5 +" result [4:0] $end
$upscope $end
$upscope $end
$enddefinitions $end
#0
$dumpvars
bx +"
x*"
x)"
x("
b0 '"
b0 &"
b0 %"
b0 $"
b0 #"
b0 ""
b0 !"
b0 ~
0}
0|
0{
b0 z
0y
b0 x
0w
1v
0u
0t
0s
0r
b0 q
0p
0o
0n
0m
0l
b0 k
0j
b0 i
0h
1g
0f
0e
0d
0c
b0 b
0a
0`
0_
0^
0]
b0 \
0[
b0 Z
0Y
1X
0W
0V
0U
0T
b0 S
0R
0Q
0P
0O
0N
b0 M
0L
b0 K
0J
1I
0H
0G
0F
0E
b0 D
0C
0B
b0 A
0@
0?
0>
0=
b0 <
b0 ;
b0 :
b0 9
08
07
16
15
14
13
12
11
10
1/
0.
0-
b0 ,
b0 +
b0 *
b0 )
0(
b0 '
b0 &
b0 %
b0 $
x#
x"
1!
$end
#200
b1 &
b1 ,
b1 &"
1*"
bx0000 +"
#400
b10 &
b10 ,
b10 &"
#600
b11 &
b11 ,
b11 &"
#800
b100 &
b100 ,
b100 &"
#1000
b101 &
b101 ,
b101 &"
#1200
b110 &
b110 ,
b110 &"
#1400
b111 &
b111 ,
b111 &"
#1600
b1000 &
b1000 ,
b1000 &"
#1800
b1001 &
b1001 ,
b1001 &"
#2000
b1010 &
b1010 ,
b1010 &"
#2200
b1011 &
b1011 ,
b1011 &"
#2400
b1100 &
b1100 ,
b1100 &"
#2600
b1101 &
b1101 ,
b1101 &"
#2800
b1110 &
b1110 ,
b1110 &"
#3000
b1111 &
b1111 ,
b1111 &"
#3200
0!
01
1U
1@
b1 $
b1 :
1E
1G
1P
1H
1J
0I
1C
1B
b1 ;
b1 ~
b1 <
b1 $"
b1 9
b1 !"
b1 '"
b1 %
b1 *
b1 #"
b1 %"
b0 &
b0 ,
b0 &"
#3400
b1 &
b1 ,
b1 &"
b1 )
#3600
b10 &
b10 ,
b10 &"
0*"
bx0001 +"
#3800
b11 &
b11 ,
b11 &"
b10 )
1*"
bx0000 +"
#4000
b100 &
b100 ,
b100 &"
0*"
bx0001 +"
#4200
b101 &
b101 ,
b101 &"
b11 )
1*"
bx0000 +"
#4400
b110 &
b110 ,
b110 &"
0*"
bx0001 +"
#4600
b111 &
b111 ,
b111 &"
b100 )
1*"
bx0000 +"
#4800
b1000 &
b1000 ,
b1000 &"
0*"
bx0001 +"
#5000
b1001 &
b1001 ,
b1001 &"
b101 )
1*"
bx0000 +"
#5200
b1010 &
b1010 ,
b1010 &"
0*"
bx0001 +"
#5400
b1011 &
b1011 ,
b1011 &"
b110 )
1*"
bx0000 +"
#5600
b1100 &
b1100 ,
b1100 &"
0*"
bx0001 +"
#5800
b1101 &
b1101 ,
b1101 &"
b111 )
1*"
bx0000 +"
#6000
b1110 &
b1110 ,
b1110 &"
0*"
bx0001 +"
#6200
b1111 &
b1111 ,
b1111 &"
b1000 )
1*"
bx0000 +"
#6400
02
11
1d
0U
1?
1T
b10 $
b10 :
0E
0@
1V
0G
1_
1W
1Y
0X
0H
0J
1I
0P
1R
0C
1Q
0B
b10 ;
b10 ~
b10 <
b10 $"
b10 9
b10 !"
b10 '"
b10 %
b10 *
b10 #"
b10 %"
b0 &
b0 ,
b0 &"
0*"
bx0001 +"
#6600
b1 &
b1 ,
b1 &"
b1001 )
1*"
bx0000 +"
#6800
b10 &
b10 ,
b10 &"
b1010 )
#7000
b11 &
b11 ,
b11 &"
0*"
bx0010 +"
#7200
b100 &
b100 ,
b100 &"
#7400
b101 &
b101 ,
b101 &"
b1011 )
1*"
bx0000 +"
#7600
b110 &
b110 ,
b110 &"
b1100 )
#7800
b111 &
b111 ,
b111 &"
0*"
bx0010 +"
#8000
b1000 &
b1000 ,
b1000 &"
#8200
b1001 &
b1001 ,
b1001 &"
b1101 )
1*"
bx0000 +"
#8400
b1010 &
b1010 ,
b1010 &"
b1110 )
#8600
b1011 &
b1011 ,
b1011 &"
0*"
bx0010 +"
#8800
b1100 &
b1100 ,
b1100 &"
#9000
b1101 &
b1101 ,
b1101 &"
b1111 )
1*"
bx0000 +"
#9200
b1110 &
b1110 ,
b1110 &"
b10000 )
#9400
b1111 &
b1111 ,
b1111 &"
0*"
bx0010 +"
#9600
01
1U
1@
b11 $
b11 :
1E
1G
1P
1H
1J
0I
1C
1B
b11 ;
b11 ~
b11 <
b11 $"
b11 9
b11 !"
b11 '"
b11 %
b11 *
b11 #"
b11 %"
b0 &
b0 ,
b0 &"
#9800
b1 &
b1 ,
b1 &"
b10001 )
1*"
bx0000 +"
#10000
b10 &
b10 ,
b10 &"
b10010 )
0*"
bx0001 +"
#10200
b11 &
b11 ,
b11 &"
b10011 )
bx0010 +"
#10400
b100 &
b100 ,
b100 &"
bx0011 +"
#10600
b101 &
b101 ,
b101 &"
b10100 )
1*"
bx0000 +"
#10800
b110 &
b110 ,
b110 &"
b10101 )
0*"
bx0001 +"
#11000
b111 &
b111 ,
b111 &"
b10110 )
bx0010 +"
#11200
b1000 &
b1000 ,
b1000 &"
bx0011 +"
#11400
b1001 &
b1001 ,
b1001 &"
b10111 )
1*"
bx0000 +"
#11600
b1010 &
b1010 ,
b1010 &"
b11000 )
0*"
bx0001 +"
#11800
b1011 &
b1011 ,
b1011 &"
b11001 )
bx0010 +"
#12000
b1100 &
b1100 ,
b1100 &"
bx0011 +"
#12200
b1101 &
b1101 ,
b1101 &"
b11010 )
1*"
bx0000 +"
#12400
b1110 &
b1110 ,
b1110 &"
b11011 )
0*"
bx0001 +"
#12600
b1111 &
b1111 ,
b1111 &"
b11100 )
bx0010 +"
#12800
03
12
11
1s
0d
0U
1>
1c
0T
0?
b100 $
b100 :
0E
0@
1e
0V
0G
1n
1f
1h
0g
0W
0Y
1X
0_
0H
0J
1I
0P
1a
0R
0C
1`
0Q
0B
b100 ;
b100 ~
b100 <
b100 $"
b100 9
b100 !"
b100 '"
b100 %
b100 *
b100 #"
b100 %"
b0 &
b0 ,
b0 &"
bx0011 +"
#13000
b1 &
b1 ,
b1 &"
b11101 )
1*"
bx0000 +"
#13200
b10 &
b10 ,
b10 &"
b11110 )
#13400
b11 &
b11 ,
b11 &"
b11111 )
#13600
b100 &
b100 ,
b100 &"
b100000 )
#13800
b101 &
b101 ,
b101 &"
0*"
bx0100 +"
#14000
b110 &
b110 ,
b110 &"
#14200
b111 &
b111 ,
b111 &"
#14400
b1000 &
b1000 ,
b1000 &"
#14600
b1001 &
b1001 ,
b1001 &"
b100001 )
1*"
bx0000 +"
#14800
b1010 &
b1010 ,
b1010 &"
b100010 )
#15000
b1011 &
b1011 ,
b1011 &"
b100011 )
#15200
b1100 &
b1100 ,
b1100 &"
b100100 )
#15400
b1101 &
b1101 ,
b1101 &"
0*"
bx0100 +"
#15600
b1110 &
b1110 ,
b1110 &"
#15800
b1111 &
b1111 ,
b1111 &"
#16000
01
1U
1@
b101 $
b101 :
1E
1G
1P
1H
1J
0I
1C
1B
b101 ;
b101 ~
b101 <
b101 $"
b101 9
b101 !"
b101 '"
b101 %
b101 *
b101 #"
b101 %"
b0 &
b0 ,
b0 &"
#16200
b1 &
b1 ,
b1 &"
b100101 )
1*"
bx0000 +"
#16400
b10 &
b10 ,
b10 &"
b100110 )
0*"
bx0001 +"
#16600
b11 &
b11 ,
b11 &"
b100111 )
1*"
bx0000 +"
#16800
b100 &
b100 ,
b100 &"
b101000 )
0*"
bx0001 +"
#17000
b101 &
b101 ,
b101 &"
b101001 )
bx0100 +"
#17200
b110 &
b110 ,
b110 &"
bx0101 +"
#17400
b111 &
b111 ,
b111 &"
b101010 )
bx0100 +"
#17600
b1000 &
b1000 ,
b1000 &"
bx0101 +"
#17800
b1001 &
b1001 ,
b1001 &"
b101011 )
1*"
bx0000 +"
#18000
b1010 &
b1010 ,
b1010 &"
b101100 )
0*"
bx0001 +"
#18200
b1011 &
b1011 ,
b1011 &"
b101101 )
1*"
bx0000 +"
#18400
b1100 &
b1100 ,
b1100 &"
b101110 )
0*"
bx0001 +"
#18600
b1101 &
b1101 ,
b1101 &"
b101111 )
bx0100 +"
#18800
b1110 &
b1110 ,
b1110 &"
bx0101 +"
#19000
b1111 &
b1111 ,
b1111 &"
b110000 )
bx0100 +"
#19200
02
11
1d
0U
1?
1T
b110 $
b110 :
0E
0@
1V
0G
1_
1W
1Y
0X
0H
0J
1I
0P
1R
0C
1Q
0B
b110 ;
b110 ~
b110 <
b110 $"
b110 9
b110 !"
b110 '"
b110 %
b110 *
b110 #"
b110 %"
b0 &
b0 ,
b0 &"
bx0101 +"
#19400
b1 &
b1 ,
b1 &"
b110001 )
1*"
bx0000 +"
#19600
b10 &
b10 ,
b10 &"
b110010 )
#19800
b11 &
b11 ,
b11 &"
b110011 )
0*"
bx0010 +"
#20000
b100 &
b100 ,
b100 &"
b110100 )
#20200
b101 &
b101 ,
b101 &"
b110101 )
bx0100 +"
#20400
b110 &
b110 ,
b110 &"
b110110 )
#20600
b111 &
b111 ,
b111 &"
bx0110 +"
#20800
b1000 &
b1000 ,
b1000 &"
#21000
b1001 &
b1001 ,
b1001 &"
b110111 )
1*"
bx0000 +"
#21200
b1010 &
b1010 ,
b1010 &"
b111000 )
#21400
b1011 &
b1011 ,
b1011 &"
b111001 )
0*"
bx0010 +"
#21600
b1100 &
b1100 ,
b1100 &"
b111010 )
#21800
b1101 &
b1101 ,
b1101 &"
b111011 )
bx0100 +"
#22000
b1110 &
b1110 ,
b1110 &"
b111100 )
#22200
b1111 &
b1111 ,
b1111 &"
bx0110 +"
#22400
01
1U
1@
b111 $
b111 :
1E
1G
1P
1H
1J
0I
1C
1B
b111 ;
b111 ~
b111 <
b111 $"
b111 9
b111 !"
b111 '"
b111 %
b111 *
b111 #"
b111 %"
b0 &
b0 ,
b0 &"
#22600
b1 &
b1 ,
b1 &"
b111101 )
1*"
bx0000 +"
#22800
b10 &
b10 ,
b10 &"
b111110 )
0*"
bx0001 +"
#23000
b11 &
b11 ,
b11 &"
b111111 )
bx0010 +"
#23200
b100 &
b100 ,
b100 &"
b1000000 )
bx0011 +"
#23400
b101 &
b101 ,
b101 &"
b1000001 )
bx0100 +"
#23600
b110 &
b110 ,
b110 &"
b1000010 )
bx0101 +"
#23800
b111 &
b111 ,
b111 &"
b1000011 )
bx0110 +"
#24000
b1000 &
b1000 ,
b1000 &"
bx0111 +"
#24200
b1001 &
b1001 ,
b1001 &"
b1000100 )
1*"
bx0000 +"
#24400
b1010 &
b1010 ,
b1010 &"
b1000101 )
0*"
bx0001 +"
#24600
b1011 &
b1011 ,
b1011 &"
b1000110 )
bx0010 +"
#24800
b1100 &
b1100 ,
b1100 &"
b1000111 )
bx0011 +"
#25000
b1101 &
b1101 ,
b1101 &"
b1001000 )
bx0100 +"
#25200
b1110 &
b1110 ,
b1110 &"
b1001001 )
bx0101 +"
#25400
b1111 &
b1111 ,
b1111 &"
b1001010 )
bx0110 +"
#25600
04
13
12
11
0s
0d
0U
1=
1r
0c
0>
0T
0?
b1000 $
b1000 :
0E
0@
1t
0e
0V
0G
1}
1u
1w
0v
0f
0h
1g
0n
0W
0Y
1X
0_
0H
0J
1I
0P
1p
0a
0R
0C
1o
0`
0Q
0B
b1000 ;
b1000 ~
b1000 <
b1000 $"
b1000 9
b1000 !"
b1000 '"
b1000 %
b1000 *
b1000 #"
b1000 %"
b0 &
b0 ,
b0 &"
bx0111 +"
#25800
b1 &
b1 ,
b1 &"
b1001011 )
1*"
bx0000 +"
#26000
b10 &
b10 ,
b10 &"
b1001100 )
#26200
b11 &
b11 ,
b11 &"
b1001101 )
#26400
b100 &
b100 ,
b100 &"
b1001110 )
#26600
b101 &
b101 ,
b101 &"
b1001111 )
#26800
b110 &
b110 ,
b110 &"
b1010000 )
#27000
b111 &
b111 ,
b111 &"
b1010001 )
#27200
b1000 &
b1000 ,
b1000 &"
b1010010 )
#27400
b1001 &
b1001 ,
b1001 &"
0*"
bx1000 +"
#27600
b1010 &
b1010 ,
b1010 &"
#27800
b1011 &
b1011 ,
b1011 &"
#28000
b1100 &
b1100 ,
b1100 &"
#28200
b1101 &
b1101 ,
b1101 &"
#28400
b1110 &
b1110 ,
b1110 &"
#28600
b1111 &
b1111 ,
b1111 &"
#28800
01
1U
1@
b1001 $
b1001 :
1E
1G
1P
1H
1J
0I
1C
1B
b1001 ;
b1001 ~
b1001 <
b1001 $"
b1001 9
b1001 !"
b1001 '"
b1001 %
b1001 *
b1001 #"
b1001 %"
b0 &
b0 ,
b0 &"
#29000
b1 &
b1 ,
b1 &"
b1010011 )
1*"
bx0000 +"
#29200
b10 &
b10 ,
b10 &"
b1010100 )
0*"
bx0001 +"
#29400
b11 &
b11 ,
b11 &"
b1010101 )
1*"
bx0000 +"
#29600
b100 &
b100 ,
b100 &"
b1010110 )
0*"
bx0001 +"
#29800
b101 &
b101 ,
b101 &"
b1010111 )
1*"
bx0000 +"
#30000
b110 &
b110 ,
b110 &"
b1011000 )
0*"
bx0001 +"
#30200
b111 &
b111 ,
b111 &"
b1011001 )
1*"
bx0000 +"
#30400
b1000 &
b1000 ,
b1000 &"
b1011010 )
0*"
bx0001 +"
#30600
b1001 &
b1001 ,
b1001 &"
b1011011 )
bx1000 +"
#30800
b1010 &
b1010 ,
b1010 &"
bx1001 +"
#31000
b1011 &
b1011 ,
b1011 &"
b1011100 )
bx1000 +"
#31200
b1100 &
b1100 ,
b1100 &"
bx1001 +"
#31400
b1101 &
b1101 ,
b1101 &"
b1011101 )
bx1000 +"
#31600
b1110 &
b1110 ,
b1110 &"
bx1001 +"
#31800
b1111 &
b1111 ,
b1111 &"
b1011110 )
bx1000 +"
#32000
02
11
1d
0U
1?
1T
b1010 $
b1010 :
0E
0@
1V
0G
1_
1W
1Y
0X
0H
0J
1I
0P
1R
0C
1Q
0B
b1010 ;
b1010 ~
b1010 <
b1010 $"
b1010 9
b1010 !"
b1010 '"
b1010 %
b1010 *
b1010 #"
b1010 %"
b0 &
b0 ,
b0 &"
bx1001 +"
#32200
b1 &
b1 ,
b1 &"
b1011111 )
1*"
bx0000 +"
#32400
b10 &
b10 ,
b10 &"
b1100000 )
#32600
b11 &
b11 ,
b11 &"
b1100001 )
0*"
bx0010 +"
#32800
b100 &
b100 ,
b100 &"
b1100010 )
#33000
b101 &
b101 ,
b101 &"
b1100011 )
1*"
bx0000 +"
#33200
b110 &
b110 ,
b110 &"
b1100100 )
#33400
b111 &
b111 ,
b111 &"
b1100101 )
0*"
bx0010 +"
#33600
b1000 &
b1000 ,
b1000 &"
b1100110 )
#33800
b1001 &
b1001 ,
b1001 &"
b1100111 )
bx1000 +"
#34000
b1010 &
b1010 ,
b1010 &"
b1101000 )
#34200
b1011 &
b1011 ,
b1011 &"
bx1010 +"
#34400
b1100 &
b1100 ,
b1100 &"
#34600
b1101 &
b1101 ,
b1101 &"
b1101001 )
bx1000 +"
#34800
b1110 &
b1110 ,
b1110 &"
b1101010 )
#35000
b1111 &
b1111 ,
b1111 &"
bx1010 +"
#35200
01
1U
1@
b1011 $
b1011 :
1E
1G
1P
1H
1J
0I
1C
1B
b1011 ;
b1011 ~
b1011 <
b1011 $"
b1011 9
b1011 !"
b1011 '"
b1011 %
b1011 *
b1011 #"
b1011 %"
b0 &
b0 ,
b0 &"
#35400
b1 &
b1 ,
b1 &"
b1101011 )
1*"
bx0000 +"
#35600
b10 &
b10 ,
b10 &"
b1101100 )
0*"
bx0001 +"
#35800
b11 &
b11 ,
b11 &"
b1101101 )
bx0010 +"
#36000
b100 &
b100 ,
b100 &"
b1101110 )
bx0011 +"
#36200
b101 &
b101 ,
b101 &"
b1101111 )
1*"
bx0000 +"
#36400
b110 &
b110 ,
b110 &"
b1110000 )
0*"
bx0001 +"
#36600
b111 &
b111 ,
b111 &"
b1110001 )
bx0010 +"
#36800
b1000 &
b1000 ,
b1000 &"
b1110010 )
bx0011 +"
#37000
b1001 &
b1001 ,
b1001 &"
b1110011 )
bx1000 +"
#37200
b1010 &
b1010 ,
b1010 &"
b1110100 )
bx1001 +"
#37400
b1011 &
b1011 ,
b1011 &"
b1110101 )
bx1010 +"
#37600
b1100 &
b1100 ,
b1100 &"
bx1011 +"
#37800
b1101 &
b1101 ,
b1101 &"
b1110110 )
bx1000 +"
#38000
b1110 &
b1110 ,
b1110 &"
b1110111 )
bx1001 +"
#38200
b1111 &
b1111 ,
b1111 &"
b1111000 )
bx1010 +"
#38400
03
12
11
1s
0d
0U
1>
1c
0T
0?
b1100 $
b1100 :
0E
0@
1e
0V
0G
1n
1f
1h
0g
0W
0Y
1X
0_
0H
0J
1I
0P
1a
0R
0C
1`
0Q
0B
b1100 ;
b1100 ~
b1100 <
b1100 $"
b1100 9
b1100 !"
b1100 '"
b1100 %
b1100 *
b1100 #"
b1100 %"
b0 &
b0 ,
b0 &"
bx1011 +"
#38600
b1 &
b1 ,
b1 &"
b1111001 )
1*"
bx0000 +"
#38800
b10 &
b10 ,
b10 &"
b1111010 )
#39000
b11 &
b11 ,
b11 &"
b1111011 )
#39200
b100 &
b100 ,
b100 &"
b1111100 )
#39400
b101 &
b101 ,
b101 &"
b1111101 )
0*"
bx0100 +"
#39600
b110 &
b110 ,
b110 &"
b1111110 )
#39800
b111 &
b111 ,
b111 &"
b1111111 )
#40000
b1000 &
b1000 ,
b1000 &"
b10000000 )
#40200
b1001 &
b1001 ,
b1001 &"
b10000001 )
bx1000 +"
#40400
b1010 &
b1010 ,
b1010 &"
b10000010 )
#40600
b1011 &
b1011 ,
b1011 &"
b10000011 )
#40800
b1100 &
b1100 ,
b1100 &"
b10000100 )
#41000
b1101 &
b1101 ,
b1101 &"
bx1100 +"
#41200
b1110 &
b1110 ,
b1110 &"
#41400
b1111 &
b1111 ,
b1111 &"
#41600
01
1U
1@
b1101 $
b1101 :
1E
1G
1P
1H
1J
0I
1C
1B
b1101 ;
b1101 ~
b1101 <
b1101 $"
b1101 9
b1101 !"
b1101 '"
b1101 %
b1101 *
b1101 #"
b1101 %"
b0 &
b0 ,
b0 &"
#41800
b1 &
b1 ,
b1 &"
b10000101 )
1*"
bx0000 +"
#42000
b10 &
b10 ,
b10 &"
b10000110 )
0*"
bx0001 +"
#42200
b11 &
b11 ,
b11 &"
b10000111 )
1*"
bx0000 +"
#42400
b100 &
b100 ,
b100 &"
b10001000 )
0*"
bx0001 +"
#42600
b101 &
b101 ,
b101 &"
b10001001 )
bx0100 +"
#42800
b110 &
b110 ,
b110 &"
b10001010 )
bx0101 +"
#43000
b111 &
b111 ,
b111 &"
b10001011 )
bx0100 +"
#43200
b1000 &
b1000 ,
b1000 &"
b10001100 )
bx0101 +"
#43400
b1001 &
b1001 ,
b1001 &"
b10001101 )
bx1000 +"
#43600
b1010 &
b1010 ,
b1010 &"
b10001110 )
bx1001 +"
#43800
b1011 &
b1011 ,
b1011 &"
b10001111 )
bx1000 +"
#44000
b1100 &
b1100 ,
b1100 &"
b10010000 )
bx1001 +"
#44200
b1101 &
b1101 ,
b1101 &"
b10010001 )
bx1100 +"
#44400
b1110 &
b1110 ,
b1110 &"
bx1101 +"
#44600
b1111 &
b1111 ,
b1111 &"
b10010010 )
bx1100 +"
#44800
02
11
1d
0U
1?
1T
b1110 $
b1110 :
0E
0@
1V
0G
1_
1W
1Y
0X
0H
0J
1I
0P
1R
0C
1Q
0B
b1110 ;
b1110 ~
b1110 <
b1110 $"
b1110 9
b1110 !"
b1110 '"
b1110 %
b1110 *
b1110 #"
b1110 %"
b0 &
b0 ,
b0 &"
bx1101 +"
#45000
b1 &
b1 ,
b1 &"
b10010011 )
1*"
bx0000 +"
#45200
b10 &
b10 ,
b10 &"
b10010100 )
#45400
b11 &
b11 ,
b11 &"
b10010101 )
0*"
bx0010 +"
#45600
b100 &
b100 ,
b100 &"
b10010110 )
#45800
b101 &
b101 ,
b101 &"
b10010111 )
bx0100 +"
#46000
b110 &
b110 ,
b110 &"
b10011000 )
#46200
b111 &
b111 ,
b111 &"
b10011001 )
bx0110 +"
#46400
b1000 &
b1000 ,
b1000 &"
b10011010 )
#46600
b1001 &
b1001 ,
b1001 &"
b10011011 )
bx1000 +"
#46800
b1010 &
b1010 ,
b1010 &"
b10011100 )
#47000
b1011 &
b1011 ,
b1011 &"
b10011101 )
bx1010 +"
#47200
b1100 &
b1100 ,
b1100 &"
b10011110 )
#47400
b1101 &
b1101 ,
b1101 &"
b10011111 )
bx1100 +"
#47600
b1110 &
b1110 ,
b1110 &"
b10100000 )
#47800
b1111 &
b1111 ,
b1111 &"
bx1110 +"
#48000
01
1U
1@
b1111 $
b1111 :
1E
1G
1P
1H
1J
0I
1C
1B
b1111 ;
b1111 ~
b1111 <
b1111 $"
b1111 9
b1111 !"
b1111 '"
b1111 %
b1111 *
b1111 #"
b1111 %"
b0 &
b0 ,
b0 &"
#48200
b1 &
b1 ,
b1 &"
b10100001 )
1*"
bx0000 +"
#48400
b10 &
b10 ,
b10 &"
b10100010 )
0*"
bx0001 +"
#48600
b11 &
b11 ,
b11 &"
b10100011 )
bx0010 +"
#48800
b100 &
b100 ,
b100 &"
b10100100 )
bx0011 +"
#49000
b101 &
b101 ,
b101 &"
b10100101 )
bx0100 +"
#49200
b110 &
b110 ,
b110 &"
b10100110 )
bx0101 +"
#49400
b111 &
b111 ,
b111 &"
b10100111 )
bx0110 +"
#49600
b1000 &
b1000 ,
b1000 &"
b10101000 )
bx0111 +"
#49800
b1001 &
b1001 ,
b1001 &"
b10101001 )
bx1000 +"
#50000
b1010 &
b1010 ,
b1010 &"
b10101010 )
bx1001 +"
#50200
b1011 &
b1011 ,
b1011 &"
b10101011 )
bx1010 +"
#50400
b1100 &
b1100 ,
b1100 &"
b10101100 )
bx1011 +"
#50600
b1101 &
b1101 ,
b1101 &"
b10101101 )
bx1100 +"
#50800
b1110 &
b1110 ,
b1110 &"
b10101110 )
bx1101 +"
#51000
b1111 &
b1111 ,
b1111 &"
b10101111 )
bx1110 +"
#51200
1!
14
13
12
11
0s
0d
0U
0r
0=
0c
0>
0T
0?
b0 $
b0 :
0E
0@
0t
0e
0V
0G
0u
0w
1v
0}
0f
0h
1g
0n
0W
0Y
1X
0_
0H
0J
1I
0P
0p
0a
0R
0C
18
0/
0o
0`
0Q
0B
b0 ;
b0 ~
b0 <
b0 $"
b0 9
b0 !"
b0 '"
b1 '
b1 +
b1 D
b1 K
b1 M
b1 S
b1 Z
b1 \
b1 b
b1 i
b1 k
b1 q
b1 x
b1 z
b0 %
b0 *
b0 #"
b0 %"
b0 &
b0 ,
b0 &"
bx1111 +"
#51400
b1 &
b1 ,
b1 &"
1*"
bx0000 +"
#51600
b10 &
b10 ,
b10 &"
b10110000 )
0*"
bx0001 +"
#51800
b11 &
b11 ,
b11 &"
b10110001 )
bx0010 +"
#52000
b100 &
b100 ,
b100 &"
b10110010 )
bx0011 +"
#52200
b101 &
b101 ,
b101 &"
b10110011 )
bx0100 +"
#52400
b110 &
b110 ,
b110 &"
b10110100 )
bx0101 +"
#52600
b111 &
b111 ,
b111 &"
b10110101 )
bx0110 +"
#52800
b1000 &
b1000 ,
b1000 &"
b10110110 )
bx0111 +"
